module wh_backend

go 1.17

require (
	github.com/gin-gonic/gin v1.8.1
	github.com/golang-jwt/jwt/v4 v4.4.2
	github.com/gookit/validate v1.4.5
	github.com/sirupsen/logrus v1.6.0
	github.com/spf13/viper v1.13.0
	github.com/swaggo/files v0.0.0-20220728132757-551d4a08d97a
	github.com/swaggo/gin-swagger v1.5.3
	github.com/swaggo/swag v1.8.8
	helper v1.0.0
)

require (
	github.com/KyleBanks/depth v1.2.1 // indirect
	github.com/PuerkitoBio/purell v1.1.1 // indirect
	github.com/PuerkitoBio/urlesc v0.0.0-20170810143723-de5bf2ad4578 // indirect
	github.com/akutz/memconn v0.1.0 // indirect
	github.com/apache/thrift v0.14.0 // indirect
	github.com/armon/go-metrics v0.3.10 // indirect
	github.com/cenk/backoff v2.2.1+incompatible // indirect
	github.com/cenkalti/backoff v2.2.1+incompatible // indirect
	github.com/cespare/xxhash/v2 v2.1.1 // indirect
	github.com/cheekybits/genny v1.0.0 // indirect
	github.com/coreos/go-semver v0.3.0 // indirect
	github.com/coreos/go-systemd/v22 v22.3.2 // indirect
	github.com/dgryski/go-jump v0.0.0-20170409065014-e1f439676b57 // indirect
	github.com/dgryski/go-rendezvous v0.0.0-20200823014737-9f7001d12a5f // indirect
	github.com/edwingeng/doublejump v0.0.0-20200219153503-7cfc0ed6e836 // indirect
	github.com/facebookgo/clock v0.0.0-20150410010913-600d898af40a // indirect
	github.com/fatih/color v1.13.0 // indirect
	github.com/fsnotify/fsnotify v1.5.4 // indirect
	github.com/gin-contrib/sse v0.1.0 // indirect
	github.com/go-logr/logr v1.2.1 // indirect
	github.com/go-logr/stdr v1.2.0 // indirect
	github.com/go-openapi/jsonpointer v0.19.5 // indirect
	github.com/go-openapi/jsonreference v0.19.6 // indirect
	github.com/go-openapi/spec v0.20.4 // indirect
	github.com/go-openapi/swag v0.19.15 // indirect
	github.com/go-ping/ping v0.0.0-20201115131931-3300c582a663 // indirect
	github.com/go-playground/locales v0.14.0 // indirect
	github.com/go-playground/universal-translator v0.18.0 // indirect
	github.com/go-playground/validator/v10 v10.10.0 // indirect
	github.com/go-redis/redis/v8 v8.8.2 // indirect
	github.com/go-task/slim-sprig v0.0.0-20210107165309-348f09dbbbc0 // indirect
	github.com/goccy/go-json v0.9.7 // indirect
	github.com/gogo/protobuf v1.3.2 // indirect
	github.com/golang/protobuf v1.5.2 // indirect
	github.com/golang/snappy v0.0.3 // indirect
	github.com/gookit/filter v1.1.4 // indirect
	github.com/gookit/goutil v0.5.15 // indirect
	github.com/grandcat/zeroconf v0.0.0-20180329153754-df75bb3ccae1 // indirect
	github.com/hashicorp/consul/api v1.12.0 // indirect
	github.com/hashicorp/errwrap v1.0.0 // indirect
	github.com/hashicorp/go-cleanhttp v0.5.2 // indirect
	github.com/hashicorp/go-hclog v1.2.0 // indirect
	github.com/hashicorp/go-immutable-radix v1.3.1 // indirect
	github.com/hashicorp/go-multierror v1.1.0 // indirect
	github.com/hashicorp/go-rootcerts v1.0.2 // indirect
	github.com/hashicorp/golang-lru v0.5.4 // indirect
	github.com/hashicorp/hcl v1.0.0 // indirect
	github.com/hashicorp/serf v0.9.7 // indirect
	github.com/josharian/intern v1.0.0 // indirect
	github.com/json-iterator/go v1.1.12 // indirect
	github.com/juju/ratelimit v1.0.1 // indirect
	github.com/julienschmidt/httprouter v1.3.0 // indirect
	github.com/kavu/go_reuseport v1.5.0 // indirect
	github.com/klauspost/cpuid/v2 v2.0.2 // indirect
	github.com/klauspost/reedsolomon v1.9.10 // indirect
	github.com/konsorten/go-windows-terminal-sequences v1.0.3 // indirect
	github.com/leodido/go-urn v1.2.1 // indirect
	github.com/lestrrat/go-file-rotatelogs v0.0.0-20180223000712-d3151e2a480f // indirect
	github.com/lestrrat/go-strftime v0.0.0-20180220042222-ba3bf9c1d042 // indirect
	github.com/lucas-clemente/quic-go v0.23.0 // indirect
	github.com/magiconair/properties v1.8.6 // indirect
	github.com/mailru/easyjson v0.7.6 // indirect
	github.com/marten-seemann/qtls-go1-16 v0.1.4 // indirect
	github.com/marten-seemann/qtls-go1-17 v0.1.0 // indirect
	github.com/mattn/go-colorable v0.1.12 // indirect
	github.com/mattn/go-isatty v0.0.16 // indirect
	github.com/miekg/dns v1.1.41 // indirect
	github.com/mitchellh/go-homedir v1.1.0 // indirect
	github.com/mitchellh/mapstructure v1.5.0 // indirect
	github.com/modern-go/concurrent v0.0.0-20180306012644-bacd9c7ef1dd // indirect
	github.com/modern-go/reflect2 v1.0.2 // indirect
	github.com/nxadm/tail v1.4.8 // indirect
	github.com/onsi/ginkgo v1.16.4 // indirect
	github.com/pelletier/go-toml v1.9.5 // indirect
	github.com/pelletier/go-toml/v2 v2.0.5 // indirect
	github.com/philhofer/fwd v1.1.1 // indirect
	github.com/pkg/errors v0.9.1 // indirect
	github.com/rcrowley/go-metrics v0.0.0-20201227073835-cf1acfcdf475 // indirect
	github.com/rpcxio/libkv v0.5.1-0.20210420120011-1fceaedca8a5 // indirect
	github.com/rpcxio/rpcx-etcd v0.2.0 // indirect
	github.com/rs/cors v1.8.2 // indirect
	github.com/rubyist/circuitbreaker v2.2.1+incompatible // indirect
	github.com/samuel/go-zookeeper v0.0.0-20201211165307-7117e9ea2414 // indirect
	github.com/smallnest/quick v0.0.0-20200505103731-c8c83f9c76d3 // indirect
	github.com/smallnest/rpcx v1.7.1 // indirect
	github.com/soheilhy/cmux v0.1.4 // indirect
	github.com/spf13/afero v1.8.2 // indirect
	github.com/spf13/cast v1.5.0 // indirect
	github.com/spf13/jwalterweatherman v1.1.0 // indirect
	github.com/spf13/pflag v1.0.5 // indirect
	github.com/subosito/gotenv v1.4.1 // indirect
	github.com/templexxx/cpufeat v0.0.0-20180724012125-cef66df7f161 // indirect
	github.com/templexxx/xor v0.0.0-20191217153810-f85b25db303b // indirect
	github.com/tinylib/msgp v1.1.6 // indirect
	github.com/tjfoc/gmsm v1.4.0 // indirect
	github.com/ugorji/go/codec v1.2.7 // indirect
	github.com/valyala/bytebufferpool v1.0.0 // indirect
	github.com/valyala/fastrand v0.0.0-20170531153657-19dd0f0bf014 // indirect
	github.com/vmihailenco/msgpack/v5 v5.3.4 // indirect
	github.com/vmihailenco/tagparser/v2 v2.0.0 // indirect
	github.com/xtaci/kcp-go v5.4.20+incompatible // indirect
	go.etcd.io/etcd/api/v3 v3.5.4 // indirect
	go.etcd.io/etcd/client/pkg/v3 v3.5.4 // indirect
	go.etcd.io/etcd/client/v2 v2.305.4 // indirect
	go.etcd.io/etcd/client/v3 v3.5.4 // indirect
	go.opentelemetry.io/otel v1.3.0 // indirect
	go.opentelemetry.io/otel/internal/metric v0.26.0 // indirect
	go.opentelemetry.io/otel/metric v0.26.0 // indirect
	go.opentelemetry.io/otel/trace v1.3.0 // indirect
	go.uber.org/atomic v1.7.0 // indirect
	go.uber.org/multierr v1.6.0 // indirect
	go.uber.org/zap v1.17.0 // indirect
	golang.org/x/crypto v0.0.0-20220829220503-c86fa9a7ed90 // indirect
	golang.org/x/mod v0.6.0-dev.0.20220419223038-86c51ed26bb4 // indirect
	golang.org/x/net v0.0.0-20220722155237-a158d28d115b // indirect
	golang.org/x/sync v0.0.0-20220722155255-886fb9371eb4 // indirect
	golang.org/x/sys v0.0.0-20220913175220-63ea55921009 // indirect
	golang.org/x/text v0.4.0 // indirect
	golang.org/x/tools v0.1.12 // indirect
	google.golang.org/genproto v0.0.0-20220519153652-3a47de7e79bd // indirect
	google.golang.org/grpc v1.46.2 // indirect
	google.golang.org/protobuf v1.28.0 // indirect
	gopkg.in/ini.v1 v1.67.0 // indirect
	gopkg.in/tomb.v1 v1.0.0-20141024135613-dd632973f1e7 // indirect
	gopkg.in/yaml.v2 v2.4.0 // indirect
	gopkg.in/yaml.v3 v3.0.1 // indirect
)

replace helper v1.0.0 => github.com/npaaui/helper v1.0.1
